<svg width="58" height="58" viewBox="0 0 58 58" fill="none" xmlns="http://www.w3.org/2000/svg">
<circle opacity="0.5" cx="29" cy="29" r="29" fill="#FC630E"/>
<circle cx="29" cy="29" r="24.4211" fill="#FF8A00"/>
<path fill-rule="evenodd" clip-rule="evenodd" d="M14.5 36.2794V19.8421L21.5859 26.383C21.8897 26.6633 22.3614 26.6509 22.65 26.355L29 19.8421L35.35 26.355C35.6386 26.6509 36.1103 26.6633 36.4141 26.383L43.5 19.8421V36.2794H43.4577C43.4857 36.3956 43.5 36.5131 43.5 36.6316C43.5 39.1605 37.0081 41.2105 29 41.2105C20.9919 41.2105 14.5 39.1605 14.5 36.6316C14.5 36.5131 14.5143 36.3956 14.5423 36.2794H14.5Z" fill="url(#paint0_linear_377_34145)"/>
<circle cx="29" cy="19.8421" r="3.05263" fill="url(#paint1_radial_377_34145)"/>
<circle cx="16.0263" cy="19.8421" r="3.05263" fill="url(#paint2_radial_377_34145)"/>
<circle cx="41.9737" cy="19.8421" r="3.05263" fill="url(#paint3_radial_377_34145)"/>
<defs>
<linearGradient id="paint0_linear_377_34145" x1="29" y1="19.8421" x2="29" y2="41.2105" gradientUnits="userSpaceOnUse">
<stop stop-color="#FFC70B"/>
<stop offset="1" stop-color="#FFDE70"/>
</linearGradient>
<radialGradient id="paint1_radial_377_34145" cx="0" cy="0" r="1" gradientUnits="userSpaceOnUse" gradientTransform="translate(29 19.8421) rotate(90) scale(3.05263)">
<stop stop-color="#FFD37D"/>
<stop offset="1" stop-color="#FFA800"/>
</radialGradient>
<radialGradient id="paint2_radial_377_34145" cx="0" cy="0" r="1" gradientUnits="userSpaceOnUse" gradientTransform="translate(16.0263 19.8421) rotate(90) scale(3.05263)">
<stop stop-color="#FFD37D"/>
<stop offset="1" stop-color="#FFA800"/>
</radialGradient>
<radialGradient id="paint3_radial_377_34145" cx="0" cy="0" r="1" gradientUnits="userSpaceOnUse" gradientTransform="translate(41.9737 19.8421) rotate(90) scale(3.05263)">
<stop stop-color="#FFD37D"/>
<stop offset="1" stop-color="#FFA800"/>
</radialGradient>
</defs>
</svg>
