<svg xmlns="http://www.w3.org/2000/svg" width="24" height="24" viewBox="0 0 24 24">
  <defs>
    <style>
      .cls-1 {
        fill: #b2b2b2;
      }

      .cls-2 {
        fill: none;
      }
    </style>
  </defs>
  <g id="그룹_6846" data-name="그룹 6846" transform="translate(-328 -250)">
    <path id="Icon_material-keyboard-arrow-right" data-name="Icon material-keyboard-arrow-right" class="cls-1" d="M12.885,21.525l5.579-5.591-5.579-5.591L14.6,8.625l7.309,7.309L14.6,23.242Z" transform="translate(356.242 246.115) rotate(90)"/>
    <rect id="ic_box" class="cls-2" width="24" height="24" transform="translate(328 250)"/>
  </g>
</svg>
