<svg xmlns="http://www.w3.org/2000/svg" width="24" height="24" viewBox="0 0 24 24">
  <g id="back" transform="translate(-13 -36)">
    <rect id="ic_box" width="24" height="24" transform="translate(13 36)" fill="none"/>
    <path id="Icon_ionic-md-arrow-back" data-name="Icon ionic-md-arrow-back" d="M23.977,13.852H10.308l6.3-6.3L14.977,5.977l-9,9,9,9L16.551,22.4l-6.243-6.3H23.977Z" transform="translate(10.024 33.024)" fill="#FF7042"/>
  </g>
</svg>
