<svg width="24" height="24" viewBox="0 0 24 24" fill="none" xmlns="http://www.w3.org/2000/svg">
<circle opacity="0.5" cx="12" cy="12" r="12" fill="#FC630E"/>
<circle cx="11.9999" cy="12" r="10.3448" fill="#FC630E"/>
<path fill-rule="evenodd" clip-rule="evenodd" d="M12.0276 17.9424C15.03 17.9424 17.4639 17.1827 17.4639 16.2457V14.549H12.0276H6.59143V16.2457C6.59143 17.1827 9.0253 17.9424 12.0276 17.9424Z" fill="url(#paint0_linear_377_30986)"/>
<ellipse cx="12.0277" cy="14.5489" rx="5.43621" ry="1.69671" fill="#FFB78E"/>
<path fill-rule="evenodd" clip-rule="evenodd" d="M12.0276 15.39C15.03 15.39 17.4639 14.6304 17.4639 13.6933V11.9966H12.0276H6.59143V13.6933C6.59143 14.6304 9.0253 15.39 12.0276 15.39Z" fill="url(#paint1_linear_377_30986)"/>
<ellipse cx="12.0277" cy="11.9966" rx="5.43621" ry="1.69671" fill="#FFB78E"/>
<path fill-rule="evenodd" clip-rule="evenodd" d="M9.53721 7.66195L6.82072 6.9937L6.3801 8.50343L6.38016 8.50344C6.1006 9.46142 8.27162 10.8278 11.2293 11.5554C14.187 12.283 16.8113 12.0962 17.0909 11.1383C17.0917 11.1355 17.0925 11.1328 17.0932 11.1301L17.5315 9.62854L14.8151 8.96031C14.078 8.62557 13.2013 8.3223 12.2418 8.08627C11.2823 7.85023 10.3579 7.71042 9.53721 7.66195Z" fill="url(#paint2_linear_377_30986)"/>
<ellipse cx="5.41941" cy="1.74096" rx="5.41941" ry="1.74096" transform="matrix(0.988185 0.243093 -0.274746 0.941371 7.30896 5.32129)" fill="#FFB78E"/>
<defs>
<linearGradient id="paint0_linear_377_30986" x1="12.1211" y1="15.5686" x2="12.3808" y2="19.6102" gradientUnits="userSpaceOnUse">
<stop stop-color="#FFD5BD"/>
<stop offset="1" stop-color="#CA997D"/>
</linearGradient>
<linearGradient id="paint1_linear_377_30986" x1="12.1211" y1="13.0162" x2="14.6239" y2="19.9603" gradientUnits="userSpaceOnUse">
<stop stop-color="#FFD5BD"/>
<stop offset="1" stop-color="#CA997D"/>
</linearGradient>
<linearGradient id="paint2_linear_377_30986" x1="11.3768" y1="7.10974" x2="14.1797" y2="16.1624" gradientUnits="userSpaceOnUse">
<stop stop-color="#FFD5BD"/>
<stop offset="1" stop-color="#CA997D"/>
</linearGradient>
</defs>
</svg>
