<svg width="86" height="80" viewBox="0 0 86 80" fill="none" xmlns="http://www.w3.org/2000/svg">
<path d="M69.3829 10H18.319C15.9689 10 14.0637 11.9052 14.0637 14.2553V65.3191C14.0637 67.6693 15.9689 69.5745 18.319 69.5745H69.3829C71.733 69.5745 73.6382 67.6693 73.6382 65.3191V14.2553C73.6382 11.9052 71.733 10 69.3829 10Z" fill="url(#paint0_linear_62183_51532)"/>
<g filter="url(#filter0_d_62183_51532)">
<path d="M62.5745 14.2554H5.12766C3.95259 14.2554 3 15.208 3 16.383V27.0213C3 28.1964 3.95259 29.149 5.12766 29.149H62.5745C63.7495 29.149 64.7021 28.1964 64.7021 27.0213V16.383C64.7021 15.208 63.7495 14.2554 62.5745 14.2554Z" fill="white"/>
</g>
<path d="M32.3617 17.6595H21.2978C20.5928 17.6595 20.0212 18.2311 20.0212 18.9361C20.0212 19.6412 20.5928 20.2127 21.2978 20.2127H32.3617C33.0667 20.2127 33.6383 19.6412 33.6383 18.9361C33.6383 18.2311 33.0667 17.6595 32.3617 17.6595Z" fill="#F8F9F9"/>
<path d="M40.0212 23.1915H21.2978C20.5928 23.1915 20.0212 23.7631 20.0212 24.4681C20.0212 25.1732 20.5928 25.7447 21.2978 25.7447H40.0212C40.7263 25.7447 41.2978 25.1732 41.2978 24.4681C41.2978 23.7631 40.7263 23.1915 40.0212 23.1915Z" fill="#ECEDEE"/>
<path d="M14.4894 15.5319H6.40427C5.2292 15.5319 4.27661 16.4844 4.27661 17.6595V25.7446C4.27661 26.9197 5.2292 27.8723 6.40427 27.8723H14.4894C15.6645 27.8723 16.617 26.9197 16.617 25.7446V17.6595C16.617 16.4844 15.6645 15.5319 14.4894 15.5319Z" fill="#83888E"/>
<path d="M9.47735 23.0978H10.3284L10.3378 22.7702C10.3378 22.3395 10.6093 22.2272 10.9931 22.1055C11.3781 21.996 11.717 21.7641 11.9585 21.4448C12.2001 21.1256 12.3311 20.7364 12.3318 20.3361C12.3403 20.0917 12.2979 19.8482 12.2073 19.6211C12.1168 19.3939 11.98 19.188 11.8058 19.0164C11.6316 18.8448 11.4236 18.7113 11.1951 18.6242C10.9666 18.5371 10.7224 18.4984 10.4782 18.5106C10.2201 18.505 9.96351 18.5518 9.72404 18.6484C9.48457 18.7449 9.2672 18.889 9.08512 19.0721C8.90303 19.2551 8.76003 19.4732 8.66477 19.7132C8.56951 19.9531 8.52399 20.21 8.53097 20.4681H9.41097C9.40763 20.3256 9.43276 20.1838 9.48491 20.0512C9.53705 19.9185 9.61514 19.7976 9.71462 19.6955C9.81409 19.5934 9.93295 19.5122 10.0642 19.4566C10.1955 19.401 10.3365 19.3722 10.4791 19.3719C10.6076 19.3644 10.7362 19.3847 10.8562 19.4314C10.9762 19.4781 11.0848 19.5501 11.1745 19.6425C11.2642 19.7348 11.3329 19.8454 11.3761 19.9667C11.4193 20.0881 11.4358 20.2172 11.4246 20.3455C11.4189 20.5531 11.3467 20.7534 11.2186 20.9169C11.0905 21.0804 10.9133 21.1984 10.7131 21.2536L10.4042 21.3761C10.1017 21.449 9.83763 21.6328 9.66425 21.8912C9.49088 22.1495 9.42083 22.4635 9.46799 22.771L9.47735 23.0978ZM9.89863 25.1208C9.98197 25.1238 10.0651 25.11 10.143 25.0803C10.2209 25.0506 10.2921 25.0056 10.3523 24.9479C10.4125 24.8902 10.4606 24.821 10.4936 24.7445C10.5266 24.6679 10.544 24.5855 10.5446 24.5021C10.5438 24.4188 10.5264 24.3365 10.4933 24.26C10.4603 24.1835 10.4122 24.1144 10.352 24.0569C10.2918 23.9993 10.2206 23.9543 10.1428 23.9247C10.0649 23.895 9.9819 23.8813 9.89863 23.8842C9.81536 23.8813 9.73235 23.895 9.65448 23.9247C9.57662 23.9543 9.50548 23.9993 9.44527 24.0569C9.38506 24.1144 9.337 24.1835 9.30392 24.26C9.27084 24.3365 9.25341 24.4188 9.25267 24.5021C9.2533 24.5855 9.27064 24.6679 9.30367 24.7445C9.3367 24.821 9.38475 24.8902 9.44497 24.9479C9.50519 25.0056 9.57636 25.0506 9.65429 25.0803C9.73221 25.11 9.81529 25.1238 9.89863 25.1208V25.1208Z" fill="white"/>
<g filter="url(#filter1_d_62183_51532)">
<path d="M23.4255 32.5532H80.8723C81.4366 32.5532 81.9778 32.7774 82.3768 33.1764C82.7758 33.5754 83 34.1166 83 34.6809V45.3192C83 45.8835 82.7758 46.4246 82.3768 46.8237C81.9778 47.2227 81.4366 47.4468 80.8723 47.4468H23.4255C22.8612 47.4468 22.32 47.2227 21.921 46.8237C21.522 46.4246 21.2979 45.8835 21.2979 45.3192V34.6809C21.2979 34.1166 21.522 33.5754 21.921 33.1764C22.32 32.7774 22.8612 32.5532 23.4255 32.5532V32.5532Z" fill="white"/>
</g>
<path d="M50.6595 35.9574H39.5957C38.8906 35.9574 38.3191 36.5289 38.3191 37.234C38.3191 37.939 38.8906 38.5106 39.5957 38.5106H50.6595C51.3646 38.5106 51.9361 37.939 51.9361 37.234C51.9361 36.5289 51.3646 35.9574 50.6595 35.9574Z" fill="#F8F9F9"/>
<path d="M58.3191 41.4894H39.5957C38.8906 41.4894 38.3191 42.0609 38.3191 42.766C38.3191 43.471 38.8906 44.0426 39.5957 44.0426H58.3191C59.0241 44.0426 59.5957 43.471 59.5957 42.766C59.5957 42.0609 59.0241 41.4894 58.3191 41.4894Z" fill="#ECEDEE"/>
<path d="M32.7872 33.8298H24.7021C23.527 33.8298 22.5745 34.7824 22.5745 35.9575V44.0426C22.5745 45.2177 23.527 46.1703 24.7021 46.1703H32.7872C33.9623 46.1703 34.9149 45.2177 34.9149 44.0426V35.9575C34.9149 34.7824 33.9623 33.8298 32.7872 33.8298Z" fill="#83888E"/>
<path d="M27.7752 41.3957H28.6263L28.6356 41.068C28.6356 40.6374 28.9071 40.5251 29.2909 40.4034C29.676 40.2938 30.0149 40.0619 30.2564 39.7427C30.4979 39.4235 30.629 39.0343 30.6297 38.634C30.6381 38.3896 30.5957 38.1461 30.5052 37.9189C30.4146 37.6918 30.2779 37.4859 30.1037 37.3143C29.9294 37.1427 29.7215 37.0091 29.4929 36.922C29.2644 36.835 29.0203 36.7963 28.7761 36.8085C28.5179 36.8028 28.2614 36.8497 28.0219 36.9462C27.7824 37.0427 27.5651 37.1869 27.383 37.3699C27.2009 37.5529 27.0579 37.7711 26.9626 38.011C26.8674 38.251 26.8218 38.5078 26.8288 38.7659H27.7088C27.7055 38.6234 27.7306 38.4817 27.7828 38.349C27.8349 38.2163 27.913 38.0954 28.0125 37.9933C28.1119 37.8912 28.2308 37.81 28.3621 37.7545C28.4933 37.6989 28.6344 37.6701 28.7769 37.6697C28.9054 37.6623 29.0341 37.6826 29.1541 37.7293C29.2741 37.776 29.3826 37.8479 29.4723 37.9403C29.562 38.0327 29.6308 38.1433 29.674 38.2646C29.7171 38.3859 29.7336 38.5151 29.7224 38.6434C29.7168 38.851 29.6446 39.0513 29.5165 39.2148C29.3884 39.3782 29.2112 39.4963 29.0109 39.5514L28.702 39.674C28.3995 39.7469 28.1355 39.9307 27.9621 40.189C27.7887 40.4473 27.7187 40.7614 27.7658 41.0689L27.7752 41.3957ZM28.1965 43.4187C28.2798 43.4216 28.3629 43.4079 28.4408 43.3782C28.5187 43.3485 28.5899 43.3034 28.6501 43.2457C28.7104 43.1881 28.7584 43.1189 28.7914 43.0423C28.8245 42.9658 28.8418 42.8833 28.8424 42.7999C28.8417 42.7166 28.8243 42.6343 28.7912 42.5578C28.7581 42.4814 28.71 42.4123 28.6498 42.3547C28.5896 42.2971 28.5185 42.2522 28.4406 42.2225C28.3628 42.1929 28.2797 42.1791 28.1965 42.1821C28.1132 42.1791 28.0302 42.1929 27.9523 42.2225C27.8745 42.2522 27.8033 42.2971 27.7431 42.3547C27.6829 42.4123 27.6349 42.4814 27.6018 42.5578C27.5687 42.6343 27.5513 42.7166 27.5505 42.7999C27.5512 42.8833 27.5685 42.9658 27.6015 43.0423C27.6346 43.1189 27.6826 43.1881 27.7428 43.2457C27.803 43.3034 27.8742 43.3485 27.9521 43.3782C28.0301 43.4079 28.1131 43.4216 28.1965 43.4187V43.4187Z" fill="white"/>
<g filter="url(#filter2_d_62183_51532)">
<path d="M5.12766 50.8511H62.5745C63.1388 50.8511 63.6799 51.0752 64.079 51.4743C64.478 51.8733 64.7021 52.4144 64.7021 52.9787V63.617C64.7021 64.1813 64.478 64.7225 64.079 65.1215C63.6799 65.5205 63.1388 65.7447 62.5745 65.7447H5.12766C4.56337 65.7447 4.02219 65.5205 3.62318 65.1215C3.22416 64.7225 3 64.1813 3 63.617V52.9787C3 52.4144 3.22416 51.8733 3.62318 51.4743C4.02219 51.0752 4.56337 50.8511 5.12766 50.8511V50.8511Z" fill="white"/>
</g>
<path d="M32.3617 54.2554H21.2978C20.5928 54.2554 20.0212 54.8269 20.0212 55.532C20.0212 56.237 20.5928 56.8086 21.2978 56.8086H32.3617C33.0667 56.8086 33.6383 56.237 33.6383 55.532C33.6383 54.8269 33.0667 54.2554 32.3617 54.2554Z" fill="#F8F9F9"/>
<path d="M40.0212 59.7872H21.2978C20.5928 59.7872 20.0212 60.3588 20.0212 61.0638C20.0212 61.7689 20.5928 62.3404 21.2978 62.3404H40.0212C40.7263 62.3404 41.2978 61.7689 41.2978 61.0638C41.2978 60.3588 40.7263 59.7872 40.0212 59.7872Z" fill="#ECEDEE"/>
<path d="M14.4894 52.1277H6.40427C5.2292 52.1277 4.27661 53.0803 4.27661 54.2553V62.3405C4.27661 63.5155 5.2292 64.4681 6.40427 64.4681H14.4894C15.6645 64.4681 16.617 63.5155 16.617 62.3405V54.2553C16.617 53.0803 15.6645 52.1277 14.4894 52.1277Z" fill="#83888E"/>
<path d="M9.47735 59.6937H10.3284L10.3378 59.366C10.3378 58.9354 10.6093 58.823 10.9931 58.7013C11.3781 58.5918 11.717 58.3599 11.9585 58.0407C12.2001 57.7214 12.3311 57.3323 12.3318 56.932C12.3403 56.6876 12.2979 56.4441 12.2073 56.2169C12.1168 55.9897 11.98 55.7838 11.8058 55.6122C11.6316 55.4406 11.4236 55.3071 11.1951 55.22C10.9666 55.1329 10.7224 55.0943 10.4782 55.1064C10.2201 55.1008 9.96351 55.1477 9.72404 55.2442C9.48457 55.3407 9.2672 55.4848 9.08512 55.6679C8.90303 55.8509 8.76003 56.069 8.66477 56.309C8.56951 56.549 8.52399 56.8058 8.53097 57.0639H9.41097C9.40763 56.9214 9.43276 56.7796 9.48491 56.647C9.53705 56.5143 9.61514 56.3934 9.71462 56.2913C9.81409 56.1892 9.93295 56.108 10.0642 56.0524C10.1955 55.9969 10.3365 55.9681 10.4791 55.9677C10.6076 55.9603 10.7362 55.9806 10.8562 56.0273C10.9762 56.0739 11.0848 56.1459 11.1745 56.2383C11.2642 56.3307 11.3329 56.4413 11.3761 56.5626C11.4193 56.6839 11.4358 56.8131 11.4246 56.9413C11.4189 57.1489 11.3467 57.3492 11.2186 57.5127C11.0905 57.6762 10.9133 57.7942 10.7131 57.8494L10.4042 57.972C10.1017 58.0448 9.83763 58.2286 9.66425 58.487C9.49088 58.7453 9.42083 59.0593 9.46799 59.3669L9.47735 59.6937ZM9.89863 61.7166C9.98197 61.7196 10.0651 61.7058 10.143 61.6761C10.2209 61.6464 10.2921 61.6014 10.3523 61.5437C10.4125 61.486 10.4606 61.4169 10.4936 61.3403C10.5266 61.2637 10.544 61.1813 10.5446 61.0979C10.5438 61.0146 10.5264 60.9323 10.4933 60.8558C10.4603 60.7793 10.4122 60.7103 10.352 60.6527C10.2918 60.5951 10.2206 60.5501 10.1428 60.5205C10.0649 60.4908 9.9819 60.4771 9.89863 60.4801C9.81536 60.4771 9.73235 60.4908 9.65448 60.5205C9.57662 60.5501 9.50548 60.5951 9.44527 60.6527C9.38506 60.7103 9.337 60.7793 9.30392 60.8558C9.27084 60.9323 9.25341 61.0146 9.25267 61.0979C9.2533 61.1813 9.27064 61.2637 9.30367 61.3403C9.3367 61.4169 9.38475 61.486 9.44497 61.5437C9.50519 61.6014 9.57636 61.6464 9.65429 61.6761C9.73221 61.7058 9.81529 61.7196 9.89863 61.7166V61.7166Z" fill="white"/>
<defs>
<filter id="filter0_d_62183_51532" x="0.446808" y="12.9788" width="66.8085" height="20.0001" filterUnits="userSpaceOnUse" color-interpolation-filters="sRGB">
<feFlood flood-opacity="0" result="BackgroundImageFix"/>
<feColorMatrix in="SourceAlpha" type="matrix" values="0 0 0 0 0 0 0 0 0 0 0 0 0 0 0 0 0 0 127 0" result="hardAlpha"/>
<feOffset dy="1.2766"/>
<feGaussianBlur stdDeviation="1.2766"/>
<feColorMatrix type="matrix" values="0 0 0 0 0 0 0 0 0 0 0 0 0 0 0 0 0 0 0.161 0"/>
<feBlend mode="normal" in2="BackgroundImageFix" result="effect1_dropShadow_62183_51532"/>
<feBlend mode="normal" in="SourceGraphic" in2="effect1_dropShadow_62183_51532" result="shape"/>
</filter>
<filter id="filter1_d_62183_51532" x="18.7447" y="31.2766" width="66.8085" height="20.0001" filterUnits="userSpaceOnUse" color-interpolation-filters="sRGB">
<feFlood flood-opacity="0" result="BackgroundImageFix"/>
<feColorMatrix in="SourceAlpha" type="matrix" values="0 0 0 0 0 0 0 0 0 0 0 0 0 0 0 0 0 0 127 0" result="hardAlpha"/>
<feOffset dy="1.2766"/>
<feGaussianBlur stdDeviation="1.2766"/>
<feColorMatrix type="matrix" values="0 0 0 0 0 0 0 0 0 0 0 0 0 0 0 0 0 0 0.161 0"/>
<feBlend mode="normal" in2="BackgroundImageFix" result="effect1_dropShadow_62183_51532"/>
<feBlend mode="normal" in="SourceGraphic" in2="effect1_dropShadow_62183_51532" result="shape"/>
</filter>
<filter id="filter2_d_62183_51532" x="0.446808" y="49.5745" width="66.8085" height="20.0001" filterUnits="userSpaceOnUse" color-interpolation-filters="sRGB">
<feFlood flood-opacity="0" result="BackgroundImageFix"/>
<feColorMatrix in="SourceAlpha" type="matrix" values="0 0 0 0 0 0 0 0 0 0 0 0 0 0 0 0 0 0 127 0" result="hardAlpha"/>
<feOffset dy="1.2766"/>
<feGaussianBlur stdDeviation="1.2766"/>
<feColorMatrix type="matrix" values="0 0 0 0 0 0 0 0 0 0 0 0 0 0 0 0 0 0 0.161 0"/>
<feBlend mode="normal" in2="BackgroundImageFix" result="effect1_dropShadow_62183_51532"/>
<feBlend mode="normal" in="SourceGraphic" in2="effect1_dropShadow_62183_51532" result="shape"/>
</filter>
<linearGradient id="paint0_linear_62183_51532" x1="43.851" y1="10" x2="43.851" y2="69.5745" gradientUnits="userSpaceOnUse">
<stop stop-color="#EEEEEF"/>
<stop offset="1" stop-color="#ECECED"/>
</linearGradient>
</defs>
</svg>
