<svg width="24" height="24" viewBox="0 0 24 24" fill="none" xmlns="http://www.w3.org/2000/svg">
<path fill-rule="evenodd" clip-rule="evenodd" d="M11.8964 2.71407C12.2405 2.67134 12.5385 2.68188 12.8559 2.73659C14.0814 2.94786 15.073 3.84639 15.4191 5.02055C15.8451 4.50454 16.4893 4.17546 17.21 4.17546C18.3646 4.17546 19.3369 5.2159 19.6475 6.53334C20.7996 11.4174 18.9612 16.3485 16.5407 18.0298C16.0914 18.3423 15.69 18.4474 15.3334 18.4474C14.7164 18.4474 14.1767 18.1121 13.887 17.6141C13.5991 18.1999 12.9964 18.6034 12.3003 18.6034C11.6042 18.6034 11.0015 18.1999 10.7138 17.6141C10.4241 18.1121 9.88441 18.4474 9.2672 18.4474C8.91084 18.4474 8.50944 18.3423 8.05984 18.0298C5.63942 16.3485 3.80096 11.4174 4.95307 6.53334C5.26395 5.2159 6.23617 4.17546 7.39077 4.17546C8.11146 4.17546 8.75574 4.50454 9.18147 5.02055C9.54193 3.7984 10.6017 2.87485 11.8964 2.71407Z" fill="#FF8744"/>
<path fill-rule="evenodd" clip-rule="evenodd" d="M11.8964 2.71407C12.2405 2.67134 12.5385 2.68188 12.8559 2.73659C14.0814 2.94786 15.073 3.84639 15.4191 5.02055C15.8451 4.50454 16.4893 4.17546 17.21 4.17546C18.3646 4.17546 19.3369 5.2159 19.6475 6.53334C20.7996 11.4174 18.9612 16.3485 16.5407 18.0298C16.0914 18.3423 15.69 18.4474 15.3334 18.4474C14.7164 18.4474 14.1767 18.1121 13.887 17.6141C13.5991 18.1999 12.9964 18.6034 12.3003 18.6034C11.6042 18.6034 11.0015 18.1999 10.7138 17.6141C10.4241 18.1121 9.88441 18.4474 9.2672 18.4474C8.91084 18.4474 8.50944 18.3423 8.05984 18.0298C5.63942 16.3485 3.80096 11.4174 4.95307 6.53334C5.26395 5.2159 6.23617 4.17546 7.39077 4.17546C8.11146 4.17546 8.75574 4.50454 9.18147 5.02055C9.54193 3.7984 10.6017 2.87485 11.8964 2.71407Z" fill="url(#paint0_radial_62260_51687)"/>
<path d="M17.374 7.5922C17.9753 7.5922 18.4628 7.10471 18.4628 6.50337C18.4628 5.90203 17.9753 5.41455 17.374 5.41455C16.7726 5.41455 16.2852 5.90203 16.2852 6.50337C16.2852 7.10471 16.7726 7.5922 17.374 7.5922Z" fill="white" fill-opacity="0.24"/>
<path d="M13 12.75C13 13.1643 12.5523 13.5 12 13.5C11.4477 13.5 11 13.1643 11 12.75C11 12.3358 11.4477 12.3 12 12.3C12.5523 12.3 13 12.3358 13 12.75Z" fill="#383D46"/>
<ellipse cx="9.00927" cy="11.4891" rx="1.00927" ry="1" fill="#383D46"/>
<ellipse cx="14.9907" cy="11.4891" rx="1.00927" ry="1" fill="#383D46"/>
<path d="M4.54015 11.5343C2.52689 6.45696 6.39073 1 11.999 1C17.8312 1 21.6991 6.86362 19.255 12" stroke="#34322E"/>
<path d="M18.1639 7.98336C18.0781 7.4686 18.4751 7 18.9969 7V7C20.8626 7 22.375 8.51242 22.375 10.3781V10.5905C22.375 12.4735 20.8485 14 18.9655 14V14C18.4528 14 18.0562 13.5506 18.1198 13.0419L18.3192 11.4465C18.4391 10.4872 18.4193 9.51567 18.2604 8.56212L18.1639 7.98336Z" fill="#34332E"/>
<path d="M10.6667 23C10.2985 23 10 22.7015 10 22.3333V22.3333C10 21.597 10.597 21 11.3333 21L11.6667 21C12.403 21 13 21.597 13 22.3333V22.3333C13 22.7015 12.7015 23 12.3333 23L10.6667 23Z" fill="#34332E"/>
<path d="M20.5 12.5C20.6667 15.8333 19.2 22.5 12 22.5" stroke="#34322E"/>
<path d="M5.86156 7.96909C5.93463 7.45761 5.53774 7 5.02107 7V7C3.14547 7 1.625 8.52047 1.625 10.3961V10.6039C1.625 12.4795 3.14547 14 5.02107 14V14C5.53774 14 5.93463 13.5424 5.86156 13.0309L5.70203 11.9142C5.56802 10.9762 5.56802 10.0238 5.70203 9.08579L5.86156 7.96909Z" fill="#34332E"/>
<defs>
<radialGradient id="paint0_radial_62260_51687" cx="0" cy="0" r="1" gradientUnits="userSpaceOnUse" gradientTransform="translate(12.3003 -4.30196) rotate(90) scale(19.083 18.464)">
<stop stop-color="white"/>
<stop offset="1" stop-color="white" stop-opacity="0"/>
</radialGradient>
</defs>
</svg>
