<svg xmlns="http://www.w3.org/2000/svg" width="16" height="16" viewBox="0 0 16 16">
  <defs>
    <style>
      .cls-1, .cls-2 {
        fill: none;
      }

      .cls-2 {
        stroke: #fff;
        stroke-linecap: round;
        stroke-linejoin: round;
        stroke-width: 1.6px;
        fill-rule: evenodd;
      }
    </style>
  </defs>
  <g id="Page-1" transform="translate(5 1.971)">
    <g id="UI-Basic-Element-Vol.-1-_-82-Icons" data-name="UI-Basic-Element-Vol.-1-|-82-Icons" transform="translate(-5 -2)">
      <g id="Lock">
        <rect id="Rectangle" class="cls-1" width="16" height="16" transform="translate(0 0.029)"/>
        <g id="Group-14" transform="translate(3.005 1.503)">
          <path id="Rectangle-2" data-name="Rectangle" class="cls-2" d="M1,13H9.517a1,1,0,0,1,1,1v5.009a1,1,0,0,1-1,1H1a1,1,0,0,1-1-1V14A1,1,0,0,1,1,13Z" transform="translate(0 -6.488)"/>
          <path id="Path-8" class="cls-2" d="M10.5,18v1.5" transform="translate(-5.24 -8.984)"/>
          <path id="Shape" class="cls-2" d="M4,6.261V3.256a3.256,3.256,0,0,1,6.512,0V6.261" transform="translate(-1.996)"/>
        </g>
      </g>
    </g>
  </g>
</svg>
