<svg xmlns="http://www.w3.org/2000/svg" width="106.418" height="20" viewBox="0 0 106.418 20">
  <defs>
    <style>
      .cls-1 {
        fill: #ff5b2c;
      }
    </style>
  </defs>
  <g id="pcare_logo" transform="translate(-169.42 -250.369)">
    <path id="패스_382" data-name="패스 382" class="cls-1" d="M335.22,286.056H334.1v1.672h1.072a3.82,3.82,0,0,0,.673-.112.671.671,0,0,0,.412-.258.833.833,0,0,0-.092-1.088A1.527,1.527,0,0,0,335.22,286.056Z" transform="translate(-129.846 -28.138)"/>
    <path id="패스_383" data-name="패스 383" class="cls-1" d="M297.583,286.109h-.724v1.835h.623a1.6,1.6,0,0,0,1.032-.255.823.823,0,0,0,.3-.654.913.913,0,0,0-.258-.656A1.337,1.337,0,0,0,297.583,286.109Z" transform="translate(-100.48 -28.18)"/>
    <path id="패스_384" data-name="패스 384" class="cls-1" d="M255.492,291.239H257.3l-.908-2.957Z" transform="translate(-67.855 -29.894)"/>
    <path id="패스_385" data-name="패스 385" class="cls-1" d="M265.838,250.369H179.42a10,10,0,0,0,0,20h86.418a10,10,0,0,0,0-20Zm-84.319,11.06h-1.391v3.051h-2.551v-8.221H181.8a2.89,2.89,0,0,1,2.066.656,2.46,2.46,0,0,1,.687,1.867,2.535,2.535,0,0,1-.748,1.946A3.243,3.243,0,0,1,181.519,261.429Zm8.852,3.051-.411-1.357h-2.884l-.4,1.357h-2.594l3.09-8.221h2.771l3.089,8.221Zm9.684-3.752a3.242,3.242,0,0,1-2.285.7h-1.391v3.051h-2.551v-8.221h4.223a2.89,2.89,0,0,1,2.066.656,2.46,2.46,0,0,1,.687,1.867A2.535,2.535,0,0,1,200.055,260.728Zm6.868,3.752-1.358-2.512a1.917,1.917,0,0,0-.46-.634,1.067,1.067,0,0,0-.623-.191h-.224v3.337h-2.551v-8.221h4.234a6.151,6.151,0,0,1,1.8.2,1.917,1.917,0,0,1,1,.749,2.321,2.321,0,0,1-.713,3.317,3.077,3.077,0,0,1-.892.325,2.534,2.534,0,0,1,.661.3,2.57,2.57,0,0,1,.406.432,3.232,3.232,0,0,1,.356.511l1.23,2.382Zm6.33,0h-2.546v-8.221h2.546Zm8.585-1.127a3.067,3.067,0,0,1-1.2.948,4.48,4.48,0,0,1-1.82.32,5.28,5.28,0,0,1-2.19-.39,3.469,3.469,0,0,1-1.466-1.37,4.644,4.644,0,0,1-.617-2.511,4.268,4.268,0,0,1,1.085-3.135,4.939,4.939,0,0,1,5.512-.468,3.692,3.692,0,0,1,1.321,1.929l-2.243.5a1.924,1.924,0,0,0-.247-.55,1.462,1.462,0,0,0-.521-.448,1.6,1.6,0,0,0-2.013.537,2.95,2.95,0,0,0-.348,1.619,3.075,3.075,0,0,0,.415,1.874,1.638,1.638,0,0,0,2.268.1,2.531,2.531,0,0,0,.541-1.189l2.226.673A4.1,4.1,0,0,1,221.838,263.352Zm7.176,1.127-.411-1.357h-2.884l-.4,1.357h-2.594l3.09-8.221h2.771l3.089,8.221Zm36.824,3.793H233.213V252.466h32.625a7.9,7.9,0,0,1,0,15.807Z" transform="translate(0 0)"/>
    <path id="패스_386" data-name="패스 386" class="cls-1" d="M220.765,286.109h-.724v1.835h.623a1.6,1.6,0,0,0,1.032-.255.823.823,0,0,0,.3-.654.914.914,0,0,0-.258-.656A1.338,1.338,0,0,0,220.765,286.109Z" transform="translate(-39.907 -28.18)"/>
    <path id="패스_387" data-name="패스 387" class="cls-1" d="M438.158,291.239h1.806l-.908-2.957Z" transform="translate(-211.888 -29.894)"/>
    <path id="패스_388" data-name="패스 388" class="cls-1" d="M482.934,283.735a1.639,1.639,0,0,1-2.269-.1,3.076,3.076,0,0,1-.415-1.874,2.951,2.951,0,0,1,.348-1.62,1.6,1.6,0,0,1,2.014-.538,1.464,1.464,0,0,1,.522.449,1.92,1.92,0,0,1,.247.55l2.244-.5a3.692,3.692,0,0,0-1.321-1.93,4.941,4.941,0,0,0-5.515.468,4.269,4.269,0,0,0-1.086,3.137,4.646,4.646,0,0,0,.617,2.512,3.471,3.471,0,0,0,1.467,1.371,5.283,5.283,0,0,0,2.191.39,4.482,4.482,0,0,0,1.821-.32,3.07,3.07,0,0,0,1.2-.948,4.106,4.106,0,0,0,.707-1.565l-2.227-.673A2.535,2.535,0,0,1,482.934,283.735Z" transform="translate(-243.069 -21.431)"/>
    <path id="패스_389" data-name="패스 389" class="cls-1" d="M519.442,278.21l-3.091,8.225h2.595l.4-1.358h2.885l.411,1.358H525.3l-3.091-8.225Zm.457,5.088.9-2.956.908,2.956Z" transform="translate(-273.542 -21.953)"/>
    <path id="패스_390" data-name="패스 390" class="cls-1" d="M569.136,283.54a2.578,2.578,0,0,0-.406-.432,2.538,2.538,0,0,0-.662-.3,3.075,3.075,0,0,0,.893-.326,2.407,2.407,0,0,0,.713-3.318,1.918,1.918,0,0,0-1-.749,6.154,6.154,0,0,0-1.8-.2h-4.236v8.225h2.553V283.1h.224a1.068,1.068,0,0,1,.623.191,1.92,1.92,0,0,1,.46.634l1.358,2.514h2.872l-1.231-2.383A3.22,3.22,0,0,0,569.136,283.54Zm-1.793-2.368a.672.672,0,0,1-.412.258,3.822,3.822,0,0,1-.673.112h-1.072v-1.672H566.3a1.526,1.526,0,0,1,.948.213.833.833,0,0,1,.093,1.088Z" transform="translate(-310.041 -21.953)"/>
    <path id="패스_391" data-name="패스 391" class="cls-1" d="M607.221,282.951h3.955v-1.677h-3.955v-1.307h4.264V278.21h-6.811v8.225h6.934v-1.863h-4.387Z" transform="translate(-343.184 -21.953)"/>
  </g>
</svg>
