<svg xmlns="http://www.w3.org/2000/svg" width="40" height="40" viewBox="0 0 40 40">
  <defs>
    <style>
      .cls-1, .cls-3 {
        fill: none;
      }

      .cls-2, .cls-6 {
        fill: #eeece9;
      }

      .cls-2 {
        fill-rule: evenodd;
      }

      .cls-3 {
        stroke: #7f7f7f;
        stroke-width: 2.4px;
      }

      .cls-4 {
        fill: #7f7f7f;
      }

      .cls-5, .cls-6 {
        stroke: none;
      }
    </style>
  </defs>
  <g id="ic_cate_process" transform="translate(-345 -1620)">
    <rect id="ic_box" class="cls-1" width="40" height="40" transform="translate(345 1620)"/>
    <g id="ic_process" transform="translate(321 1031)">
      <path id="패스_4033" data-name="패스 4033" class="cls-2" d="M28.007-12.261l-3.855-.568h0a14.349,14.349,0,0,1-9.724,3.782A14.452,14.452,0,0,1,0-23.524,14.452,14.452,0,0,1,14.428-38,14.452,14.452,0,0,1,28.856-23.524a14.451,14.451,0,0,1-1.684,6.794l1.389,3.788a.511.511,0,0,1-.3.655A.51.51,0,0,1,28.007-12.261Z" transform="translate(29.631 632.637)"/>
      <line id="선_325" data-name="선 325" class="cls-3" x2="14.906" transform="translate(37.594 605.5)"/>
      <line id="선_326" data-name="선 326" class="cls-3" x2="9.906" transform="translate(37.594 610.113)"/>
      <g id="패스_749" data-name="패스 749" class="cls-4" transform="translate(-561.172 231.054)">
        <path class="cls-5" d="M 603.0367431640625 386.2248840332031 C 602.55419921875 386.2248840332031 602.1056518554688 386.0155334472656 601.8062133789062 385.6504821777344 C 601.5027465820312 385.2805480957031 601.3845825195312 384.7881469726562 601.4819946289062 384.2994995117188 L 602.0746459960938 381.3294372558594 C 602.1427001953125 380.9821166992188 602.31591796875 380.6600952148438 602.5750122070312 380.40087890625 L 610.366943359375 372.6089172363281 C 611.0869140625 371.8888854980469 612.0567016601562 371.4759521484375 613.0274658203125 371.4759521484375 C 613.8943481445312 371.4759521484375 614.6959228515625 371.8001098632812 615.2845458984375 372.388671875 C 615.9247436523438 373.0289916992188 616.2470092773438 373.9027099609375 616.1919555664062 374.8489990234375 C 616.1389770507812 375.7604370117188 615.7384033203125 376.6335144042969 615.0639038085938 377.3074035644531 L 607.2733154296875 385.0987854003906 C 607.0162963867188 385.3560791015625 606.6947631835938 385.5292358398438 606.3438110351562 385.5993347167969 L 603.3744506835938 386.1912231445312 C 603.2623901367188 386.2135620117188 603.1487426757812 386.2248840332031 603.0367431640625 386.2248840332031 Z"/>
        <path class="cls-6" d="M 603.0367431640625 385.4248962402344 C 603.0955200195312 385.4248962402344 603.1561889648438 385.4189758300781 603.2180786132812 385.4066467285156 L 606.1871337890625 384.8148193359375 C 606.3804321289062 384.7762145996094 606.5630493164062 384.6778259277344 606.7075805664062 384.5331420898438 L 614.4984741210938 376.741455078125 C 615.605712890625 375.6351928710938 615.7040405273438 373.939697265625 614.7188720703125 372.9543762207031 C 614.2640991210938 372.4996337890625 613.6575927734375 372.2759399414062 613.0274658203125 372.2759399414062 C 612.2936401367188 372.2759399414062 611.52783203125 372.5794067382812 610.9326171875 373.1745910644531 L 603.1408081054688 380.9664611816406 C 602.9962768554688 381.1110534667969 602.8969116210938 381.29345703125 602.8591918945312 381.4859924316406 L 602.2665405273438 384.4559020996094 C 602.160400390625 384.98828125 602.5310668945312 385.4248962402344 603.0367431640625 385.4248962402344 M 603.0367431640625 387.02490234375 C 602.3136596679688 387.02490234375 601.6397094726562 386.7088928222656 601.1876831054688 386.1578674316406 C 600.731689453125 385.6019897460938 600.552978515625 384.8676452636719 600.6973876953125 384.1430969238281 L 601.2894287109375 381.1765441894531 C 601.388916015625 380.670654296875 601.6377563476562 380.2069091796875 602.0092163085938 379.8353271484375 L 609.8012084960938 372.043212890625 C 610.670166015625 371.1742858886719 611.8460693359375 370.6759338378906 613.0274658203125 370.6759338378906 C 614.1080322265625 370.6759338378906 615.1104736328125 371.0833129882812 615.8502197265625 371.8229675292969 C 616.6424560546875 372.6153259277344 617.05810546875 373.7351684570312 616.9906616210938 374.8954162597656 C 616.92626953125 376.0030212402344 616.4428100585938 377.0605773925781 615.6293334960938 377.8733215332031 L 607.8389892578125 385.6644592285156 C 607.4700927734375 386.0337219238281 607.007080078125 386.2826843261719 606.5004272460938 386.3838500976562 L 603.5308837890625 386.9757690429688 C 603.367431640625 387.0083618164062 603.201171875 387.02490234375 603.0367431640625 387.02490234375 Z"/>
      </g>
    </g>
  </g>
</svg>
