<svg width="64" height="64" viewBox="0 0 64 64" fill="none" xmlns="http://www.w3.org/2000/svg">
<path d="M32 0C49.6731 0 64 14.3269 64 32C64 49.6731 49.6731 64 32 64C14.3269 64 0 49.6731 0 32C0 14.3269 14.3269 0 32 0Z" fill="#E5E5E5"/>
<rect x="16" y="31" width="32" height="20" rx="1" stroke="white" stroke-width="3"/>
<path d="M16 34.907L32 42.7393L48 34.907" stroke="white" stroke-width="3" stroke-linejoin="round"/>
<path d="M47.8423 51L36.2267 42.0352" stroke="white" stroke-width="3" stroke-linecap="round"/>
<path d="M16 51L27.6156 42.0352" stroke="white" stroke-width="3" stroke-linecap="round"/>
<path d="M27 19L32 24L37 19" stroke="white" stroke-width="3" stroke-linecap="round" stroke-linejoin="round"/>
<path d="M32 23L32 12" stroke="white" stroke-width="3" stroke-linecap="round" stroke-linejoin="round"/>
</svg>
