<svg width="42" height="42" viewBox="0 0 42 42" fill="none" xmlns="http://www.w3.org/2000/svg">
<rect width="42" height="42" rx="21" fill="#C2C1C1"/>
<rect x="12.002" y="10" width="17.9983" height="22" rx="1.5" stroke="white" stroke-width="2"/>
<path d="M18 18.5L20.3333 21L25 16" stroke="white" stroke-width="2" stroke-linecap="round" stroke-linejoin="round"/>
<rect x="15.002" y="25.7144" width="11.9989" height="2" rx="1" fill="white"/>
</svg>
