<svg width="24" height="24" viewBox="0 0 24 24" fill="none" xmlns="http://www.w3.org/2000/svg">
<path d="M4.57102 21.6C4.25602 21.6 3.99902 21.242 3.99902 20.8C3.99902 20.358 4.25602 20 4.57102 20H19.428C19.744 20 20 20.358 20 20.8C20 21.242 19.744 21.6 19.428 21.6H4.57102Z" fill="#FF5B2C"/>
<path d="M6.78298 18C5.62788 16.6682 4.99445 14.9629 4.99998 13.2C4.97327 11.3169 5.69581 9.50035 7.0086 8.15005C8.3214 6.79975 10.1169 6.02634 12 6C13.8831 6.02634 15.6786 6.79975 16.9914 8.15005C18.3042 9.50035 19.0267 11.3169 19 13.2C19.005 14.9627 18.372 16.6676 17.218 18H6.78298Z" fill="#FF5B2C"/>
<path d="M22.024 17.036L20.644 16.598C20.4581 16.5415 20.3028 16.4126 20.2129 16.2403C20.123 16.0681 20.1061 15.8669 20.166 15.682C20.2992 15.2963 20.7171 15.0885 21.105 15.215L22.485 15.652C22.6713 15.7083 22.8271 15.8374 22.917 16.0099C23.007 16.1825 23.0236 16.3841 22.963 16.569C22.8588 16.8704 22.5739 17.0716 22.255 17.069C22.1768 17.07 22.0989 17.0588 22.024 17.036Z" fill="#FF5B2C"/>
<path d="M1.03705 16.569C0.977081 16.3841 0.99393 16.1828 1.08381 16.0103C1.17369 15.8379 1.32907 15.7088 1.51505 15.652L2.89505 15.215C3.28303 15.0885 3.70085 15.2963 3.83405 15.682C3.89427 15.8669 3.87753 16.0682 3.7876 16.2405C3.69766 16.4129 3.54211 16.5417 3.35605 16.598L1.97605 17.036C1.90136 17.0599 1.82344 17.072 1.74505 17.072C1.42542 17.0741 1.14029 16.8715 1.03705 16.569Z" fill="#FF5B2C"/>
<path d="M20.1671 10.5781C20.1071 10.3931 20.1239 10.1918 20.2138 10.0194C20.3037 9.84694 20.4591 9.71785 20.6451 9.66108L22.0251 9.22408C22.413 9.09752 22.8309 9.30532 22.9641 9.69108C23.0246 9.87604 23.008 10.0776 22.918 10.2502C22.8281 10.4228 22.6724 10.5518 22.4861 10.6081L21.1061 11.0451C21.0314 11.0689 20.9534 11.081 20.8751 11.0811C20.5551 11.0836 20.2694 10.8809 20.1661 10.5781H20.1671Z" fill="#FF5B2C"/>
<path d="M2.89505 11.0451L1.51505 10.6081C1.32907 10.5513 1.17369 10.4222 1.08381 10.2498C0.99393 10.0774 0.977081 9.87605 1.03705 9.69108C1.17024 9.30532 1.58806 9.09752 1.97605 9.22408L3.35605 9.66108C3.54235 9.71737 3.69808 9.84639 3.78804 10.019C3.878 10.1916 3.89459 10.3931 3.83405 10.5781C3.72978 10.8794 3.44488 11.0806 3.12605 11.0781C3.04781 11.079 2.9699 11.0679 2.89505 11.0451Z" fill="#FF5B2C"/>
<path d="M17.048 6.44502C16.8886 6.33404 16.7811 6.16317 16.75 5.97148C16.7189 5.7798 16.7669 5.58369 16.883 5.42802L17.735 4.28202C17.9813 3.95566 18.4425 3.88433 18.776 4.12102C18.9348 4.23217 19.0419 4.40283 19.073 4.59418C19.1041 4.78553 19.0564 4.98132 18.941 5.13702L18.088 6.28402C17.8414 6.60929 17.3813 6.68051 17.048 6.44502Z" fill="#FF5B2C"/>
<path d="M5.91201 6.28906L5.06001 5.14206C4.94396 4.98656 4.89601 4.79061 4.92711 4.59908C4.95821 4.40756 5.06572 4.23686 5.22501 4.12606C5.55813 3.88948 6.01901 3.96083 6.26501 4.28706L7.11701 5.43306C7.2332 5.58861 7.28134 5.78463 7.25043 5.9763C7.21952 6.16798 7.1122 6.33893 6.95301 6.45006C6.61963 6.68555 6.15958 6.61433 5.91301 6.28906H5.91201Z" fill="#FF5B2C"/>
<path d="M11.254 4.14493V2.72693C11.254 2.31548 11.5876 1.98193 11.999 1.98193C12.4105 1.98193 12.744 2.31548 12.744 2.72693V4.14493C12.744 4.55639 12.4105 4.88993 11.999 4.88993C11.5876 4.88993 11.254 4.55639 11.254 4.14493Z" fill="#FF5B2C"/>
</svg>
