<svg width="24" height="24" viewBox="0 0 24 24" fill="none" xmlns="http://www.w3.org/2000/svg">
<path d="M6 12C6 8.68629 8.68629 6 12 6C15.3137 6 18 8.68629 18 12C18 15.3137 15.3137 18 12 18C8.68629 18 6 15.3137 6 12Z" stroke="#FF7042" stroke-width="2"/>
<rect x="16" y="13.25" width="2" height="5" rx="1" transform="rotate(120 16 13.25)" fill="#FF7042"/>
<rect x="11" y="8" width="2" height="5" rx="1" fill="#FF7042"/>
</svg>
