<svg width="24" height="24" viewBox="0 0 24 24" fill="none" xmlns="http://www.w3.org/2000/svg">
<path d="M7.572 21.6C7.257 21.6 7 21.242 7 20.8C7 20.358 7.257 20 7.572 20H16.428C16.744 20 17 20.358 17 20.8C17 21.242 16.744 21.6 16.428 21.6H7.572Z" fill="#FF5B2C"/>
<path d="M4.57102 18.6C4.25602 18.6 3.99902 18.242 3.99902 17.8C3.99902 17.358 4.25602 17 4.57102 17H19.428C19.744 17 20 17.358 20 17.8C20 18.242 19.744 18.6 19.428 18.6H4.57102Z" fill="#FF5B2C"/>
<path d="M7.0086 8.15005C5.69581 9.50035 4.97327 11.3169 4.99998 13.2C4.99807 13.8113 5.07298 14.4157 5.21984 15H18.7799C18.9267 14.4157 19.0017 13.8113 19 13.2C19.0267 11.3169 18.3042 9.50035 16.9914 8.15005C15.6786 6.79975 13.8831 6.02634 12 6C10.1169 6.02634 8.3214 6.79975 7.0086 8.15005Z" fill="#FF5B2C"/>
<path d="M20.1671 10.578C20.1071 10.393 20.1239 10.1917 20.2138 10.0192C20.3037 9.84682 20.4591 9.71772 20.6451 9.66095L22.0251 9.22395C22.413 9.0974 22.8309 9.3052 22.9641 9.69095C23.0246 9.87592 23.008 10.0775 22.918 10.2501C22.8281 10.4226 22.6724 10.5517 22.4861 10.608L21.1061 11.045C21.0314 11.0688 20.9534 11.0809 20.8751 11.081C20.5551 11.0835 20.2694 10.8808 20.1661 10.578H20.1671Z" fill="#FF5B2C"/>
<path d="M2.89505 11.045L1.51505 10.608C1.32907 10.5512 1.17369 10.4221 1.08381 10.2497C0.99393 10.0772 0.977081 9.87593 1.03705 9.69095C1.17024 9.3052 1.58806 9.0974 1.97605 9.22395L3.35605 9.66095C3.54235 9.71725 3.69808 9.84627 3.78804 10.0189C3.878 10.1914 3.89459 10.393 3.83405 10.578C3.72978 10.8793 3.44488 11.0805 3.12605 11.078C3.04781 11.0789 2.9699 11.0677 2.89505 11.045Z" fill="#FF5B2C"/>
<path d="M17.048 6.44502C16.8886 6.33404 16.7811 6.16317 16.75 5.97148C16.7189 5.7798 16.7669 5.58369 16.883 5.42802L17.735 4.28202C17.9813 3.95566 18.4425 3.88433 18.776 4.12102C18.9348 4.23217 19.0419 4.40283 19.073 4.59418C19.1041 4.78553 19.0564 4.98132 18.941 5.13702L18.088 6.28402C17.8414 6.60929 17.3813 6.68051 17.048 6.44502Z" fill="#FF5B2C"/>
<path d="M5.91201 6.28894L5.06001 5.14194C4.94396 4.98643 4.89601 4.79049 4.92711 4.59896C4.95821 4.40744 5.06572 4.23674 5.22501 4.12594C5.55813 3.88936 6.01901 3.96071 6.26501 4.28694L7.11701 5.43294C7.2332 5.58849 7.28134 5.78451 7.25043 5.97618C7.21952 6.16786 7.1122 6.3388 6.95301 6.44994C6.61963 6.68543 6.15958 6.61421 5.91301 6.28894H5.91201Z" fill="#FF5B2C"/>
<path d="M11.254 4.14506V2.72706C11.254 2.3156 11.5876 1.98206 11.999 1.98206C12.4105 1.98206 12.744 2.3156 12.744 2.72706V4.14506C12.744 4.55651 12.4105 4.89006 11.999 4.89006C11.5876 4.89006 11.254 4.55651 11.254 4.14506Z" fill="#FF5B2C"/>
</svg>
